[ 
    {
        "model": "iBus.sRuta",
        "pk" : 1,
        "fields" :{
            "nombre" : "Ruta 1",
            "descripcion" : "Descripcion Ruta 1"
        }
    },
    {
        "model": "iBus.sRuta",
        "pk" : 2,
        "fields" :{
            "nombre" : "Ruta 2",
            "descripcion" : "Descripcion Ruta 2"
        }
    }
]